…
one table verbs

filter(): Extract rows that satisfy specified conditions.

Here, I want to create a new dataset (stroke_suffered) from those who had a stroke.

#...

library(dplyr)

stroke_suffered <- stroke_predic %>%
  filter(stroke==1)
 stroke_suffered

## # A tibble: 249 x 12
##       id gender   age hypertension heart_disease ever_married work_type    
##    <dbl> <chr>  <dbl>        <dbl>         <dbl> <chr>        <chr>        
##  1  9046 Male      67            0             1 Yes          Private      
##  2 51676 Female    61            0             0 Yes          Self-employed
##  3 31112 Male      80            0             1 Yes          Private      
##  4 60182 Female    49            0             0 Yes          Private      
##  5  1665 Female    79            1             0 Yes          Self-employed
##  6 56669 Male      81            0             0 Yes          Private      
##  7 53882 Male      74            1             1 Yes          Private      
##  8 10434 Female    69            0             0 No           Private      
##  9 27419 Female    59            0             0 Yes          Private      
## 10 60491 Female    78            0             0 Yes          Private      
## # ... with 239 more rows, and 5 more variables: Residence_type <chr>,
## #   avg_glucose_level <dbl>, bmi <chr>, smoking_status <chr>, stroke <dbl>
…
