…
<script src="{{< blogdown/postref >}}index_files/header-attrs/header-attrs.js">

Use the attached file lego_sales.csv and complete the following tasks using tidyverse. Submit the RmD file and link to the post on your website.

1- What are the three most common first names of customers?

lego %>%
    select(first_name) %>%
    count(first_name) %>%
    arrange(desc(n))

## # A tibble: 211 x 2
##    first_name     n
##    <chr>      <int>
##  1 Jackson       13
##  2 Jacob         11
##  3 Joseph        11
##  4 Michael       10
##  5 Audrey         8
##  6 Connor         8
##  7 Kaitlyn        8
##  8 Lucas          8
##  9 Amanda         7
## 10 Joshua         7
## # ... with 201 more rows

answer: 1-Jackson (13) 2,3- Jacob (11) , Jacob (11) are three most popular first names.

2- What are the three most common themes of lego sets purchased?

lego %>%
    select(theme) %>%
    count(theme) %>%
    arrange(desc(n))

## # A tibble: 25 x 2
##    theme            n
##    <chr>        <int>
##  1 Star Wars       75
##  2 Nexo Knights    64
##  3 Gear            55
##  4 Mixels          55
##  5 City            45
##  6 Friends         42
##  7 Ninjago         38
##  8 Duplo           35
##  9 Bionicle        34
## 10 Creator         25
## # ... with 15 more rows

answer: 1-Star Wars (75) 2- Nexo Knights (64) 3- Gear & Mixels (55-tie) are common themes of lego sets purchased.

3- Among the most common theme of lego sets purchased, what is the most common subtheme?

lego %>%
    select(theme, subtheme) %>%
    filter(theme=="Star Wars" |
           theme=="Nexo Knights" |
           theme=="Gear" |
           theme=="Mixels") %>%
    count(subtheme) %>%
    arrange(desc(n))

## # A tibble: 30 x 2
##    subtheme              n
##    <chr>             <int>
##  1 <NA>                 42
##  2 Ultimate             22
##  3 Series 9             21
##  4 Series 7             18
##  5 Series 8             16
##  6 The Force Awakens    15
##  7 Buildable Figures    11
##  8 Episode V            10
##  9 MicroFighters        10
## 10 Battlefront           7
## # ... with 20 more rows
…
lego_age_group <- lego %>%
    mutate(age_group=case_when(
        age <= 18 ~ "18 and under" ,
        between(age, 19, 25) ~ "19 - 25" ,
        between(age, 26, 35) ~ "26 - 35" ,
        between(age, 36, 50) ~ "36 - 50" ,
        age >= 51 ~ "51 and over" ,
    ))

# To represent result:
lego_age_group %>%
    select(first_name, age ,age_group)

## # A tibble: 620 x 3
##    first_name   age age_group
##    <chr>      <dbl> <chr>    
##  1 Kimberly      24 19 - 25  
##  2 Neel          35 26 - 35  
##  3 Neel          35 26 - 35  
##  4 Chelsea       41 36 - 50  
##  5 Chelsea       41 36 - 50  
##  6 Chelsea       41 36 - 50  
##  7 Bryanna       19 19 - 25  
##  8 Bryanna       19 19 - 25  
##  9 Caleb         37 36 - 50  
## 10 Caleb         37 36 - 50  
## # ... with 610 more rows
…
The probablity is 0.2571429 or nearly 25.71%.

6- Which age group has purchased the largest number of lego sets? How many did they purchase?

new <- lego_age_group  %>%
    group_by(age_group)  %>%
    count(quantity)  %>%
    mutate(Number_of_Purchase=n*quantity)

new %>%
    select(age_group, Number_of_Purchase)%>%
    mutate(total=sum(Number_of_Purchase)) %>%
    arrange(desc(total))

## # A tibble: 21 x 3
## # Groups:   age_group [5]
##    age_group Number_of_Purchase total
##    <chr>                  <dbl> <dbl>
##  1 36 - 50                  143   313
##  2 36 - 50                  108   313
##  3 36 - 50                   45   313
##  4 36 - 50                   12   313
##  5 36 - 50                    5   313
##  6 26 - 35                  116   267
##  7 26 - 35                  106   267
##  8 26 - 35                   33   267
##  9 26 - 35                   12   267
## 10 19 - 25                   93   174
## # ... with 11 more rows

36 - 50 years. They purchased 313 sets.

7- Which age group has spent the most money on legos? How much did they spend?

new1 <- lego_age_group %>%
    group_by(age_group)   %>%
    select(age_group, us_price, quantity) %>%
    mutate(total_spend=quantity*us_price) %>%
    mutate(total=sum(total_spend)) %>%
    arrange(desc(total))

new1

## # A tibble: 620 x 5
## # Groups:   age_group [5]
##    age_group us_price quantity total_spend total
##    <chr>        <dbl>    <dbl>       <dbl> <dbl>
##  1 36 - 50      30.0         1       30.0  9533.
##  2 36 - 50     120.          1      120.   9533.
##  3 36 - 50       9.99        1        9.99 9533.
##  4 36 - 50       9.99        1        9.99 9533.
##  5 36 - 50     110.          2      220.   9533.
##  6 36 - 50      15.0         1       15.0  9533.
##  7 36 - 50      50.0         1       50.0  9533.
##  8 36 - 50       4.99        1        4.99 9533.
##  9 36 - 50     120.          1      120.   9533.
## 10 36 - 50     170.          1      170.   9533.
## # ... with 610 more rows
…
pie(plot_$n,labels)

<img src="{{< blogdown/postref >}}index_files/figure-html/unnamed-chunk-11-2.png" width="672" />

#

Now, calculate avarage price of each catagories.

pp <- lego_piece_price %>%
  group_by(NumberOfPices) %>%
  mutate(average_price=mean(us_price))

pp

## # A tibble: 551 x 4
## # Groups:   NumberOfPices [4]
##    pieces us_price NumberOfPices     average_price
##     <dbl>    <dbl> <fct>                     <dbl>
##  1     77     9.99 76 to 150 pieces          14.5 
##  2   1093   120.   over 400 pieces           77.5 
##  3    333    40.0  151 to 400 pieces         26.8 
##  4    368    30.0  151 to 400 pieces         26.8 
##  5   1093   120.   over 400 pieces           77.5 
##  6     19     9.99 Under 75 pices             9.84
##  7    233    25.0  151 to 400 pieces         26.8 
##  8     77     9.99 76 to 150 pieces          14.5 
##  9    108     9.99 76 to 150 pieces          14.5 
## 10     13     9.99 Under 75 pices             9.84
## # ... with 541 more rows
…
